…
#### `sum_pef_tp()` and `id_ramo_to_abr_ramo()`

This simple code estimates the approved budget for each ministry in 2022
and assign its abbreviation.

``` r
budget_ministery <- budget_2022 %>% 
  sum_pef_tp(id_ramo,
             keep_mensual = F) %>% 
  mutate(abr_ramo = id_ramo_to_abr_ramo(id_ramo),
         aprobado = aprobado/1000000) %>% 
  select(abr_ramo, aprobado)

budget_ministery
#> # A tibble: 48 × 2
#>    abr_ramo        aprobado
#>    <chr>              <dbl>
#>  1 P. Legislativo    15013.
#>  2 SE                 3587.
#>  3 SEP              364600.
#>  4 SSA              193948.
#>  5 Semar             37750.
#>  6 STPS              25384.
#>  7 Sedatu            12868.
#>  8 Semarnat          40796.
#>  9 Sener             47058.
#> 10 Aport. a la SS. 1092012.
#> # ℹ 38 more rows
```

#### `deflactar_tp()`

This code estimates the value of the approved budget in 2022 with 2010
prices in a few lines of code.

``` r
budget_ministery %>% 
  mutate(aprobado_2010_prices = 
           deflactar_tp(aprobado, 
                        2022,
                        2010))
#> # A tibble: 48 × 3
#>    abr_ramo        aprobado aprobado_2010_prices
#>    <chr>              <dbl>                <dbl>
#>  1 P. Legislativo    15013.                8560.
#>  2 SE                 3587.                2045.
#>  3 SEP              364600.              207902.
#>  4 SSA              193948.              110593.
#>  5 Semar             37750.               21526.
#>  6 STPS              25384.               14475.
#>  7 Sedatu            12868.                7338.
#>  8 Semarnat          40796.               23263.
#>  9 Sener             47058.               26833.
#> 10 Aport. a la SS. 1092012.              622685.
#> # ℹ 38 more rows
```
…
